{
  "project_info": {
    "project_number": "224244341439",
    "firebase_url": "https://ffmtpe-enlace.firebaseio.com",
    "project_id": "ffmtpe-enlace",
    "storage_bucket": "ffmtpe-enlace.appspot.com"
  },
  "client": [
    {
      "client_info": {
        "mobilesdk_app_id": "1:224244341439:android:73addc906f43dd4e",
        "android_client_info": {
          "package_name": "com.totalplay.fieldforcetpenlace"
        }
      },
      "oauth_client": [
        {
          "client_id": "224244341439-2g7tesut0bi7abvrhnah92lco7l1iokd.apps.googleusercontent.com",
          "client_type": 3
        }
      ],
      "api_key": [
        {
          "current_key": "AIzaSyBq2eQXLLNo6u-0RbvTCit9erZNtKxjI-I"
        }
      ],
      "services": {
        "analytics_service": {
          "status": 1
        },
        "appinvite_service": {
          "status": 1,
          "other_platform_oauth_client": []
        },
        "ads_service": {
          "status": 2
        }
      }
    }
  ],
  "configuration_version": "1"
}